%YAML 1.1
%TAG !u! tag:unity3d.com,2011:
--- !u!1045 &1
EditorBuildSettings:
  m_ObjectHideFlags: 0
  serializedVersion: 2
  m_Scenes:
  - enabled: 0
    path: 
    guid: 00000000000000000000000000000000
  - enabled: 1
    path: Assets/SkillboxHomeworks/SkillboxHomework6/Homework6.unity
    guid: 52be83c8b85b80b4992744827a58f74b
  m_configObjects: {}
